bandscope.csv

#Digilent WaveForms Oscilloscope Acquisition
#Device Name: Discovery2
#Serial Number: SN:210321B2879B
#Date Time: 2025-05-14 14:12:52.544
#Sample rate: 4.7619e+06Hz
#Samples: 8192
#Trigger: Source: Channel 1 Type: Edge Condition: Rising Level: 0 V Hyst.: Auto HoldOff: 0 s
#Channel 1: Range: 500 mV/div Offset: 0 V Sample Mode: Average
#Channel 2: Range: 10 mV/div Offset: 0 V Sample Mode: Average
#Wavegen Channel 1: Running
#Mode: Simple
#Type: Sine
#Frequency: 2.8 kHz
#Period: 357.1428571 us
#Amplitude: 1 V
#Offset: 0 V
#Symmetry: 50 %
#Phase: 0 °
#Power Supplies: OFF
#Positive Supply: Rdy
#Voltage: 5 V
#Negative Supply: OFF
#Voltage: -5 V

Time (s),Channel 1 (V),Channel 2 (V)
-0.001009992001259975,0.8804001211539505,0.008422834618277152
-0.001009782001259975,0.8814111493409474,0.0087606084037892
-0.001009572001259975,0.8827591869236092,0.007747287047251669
-0.001009362001259975,0.8857922714845996,0.006733965690713677
-0.001009152001259975,0.8894993748369179,0.004707322977639535
-0.001008942001259975,0.8911844218152485,0.005045096763150203
-0.001008732001259975,0.8925324593979116,0.005720644334175684
-0.001008522001259975,0.8928694687935772,0.007071739476226341
-0.001008312001259975,0.8942175063762404,0.007071739476226341
-0.001008102001259975,0.8959025533545685,0.007071739476226495
-0.001007892001259975,0.8975876003328956,0.007409513261739005
-0.001007682001259975,0.8992726473112237,0.007071739476226341
-0.001007472001259975,0.8999466661025542,0.00605841811968927
-0.001007262001259975,0.902305731872213,0.005382870548663327
-0.001007052001259975,0.9039907788505412,0.005720644334175531
-0.001006842001259975,0.9046647976418732,0.006396191905201013
-0.001006632001259975,0.9080348915985299,0.004707322977637539
-0.001006422001259975,0.9093829291811925,0.00436954919212472
-0.001006212001259975,0.911067976159519,0.003694001621100006
-0.001006002001259975,0.9110679761595197,0.003694001621099699
-0.001005792001259975,0.911404985555185,0.004369549192124413
-0.001005582001259975,0.9120790043465161,0.004707322977637539
-0.001005372001259975,0.9144380701161746,0.004369549192125181
-0.001005162001259975,0.9167971358858349,0.003694001621099699
-0.001004952001259975,0.9178081640728328,0.004369549192125027
-0.001004742001259975,0.9201672298424913,0.004369549192124567
-0.001004532001259975,0.9211782580294873,0.003356227835587496
-0.001004322001259975,0.9225262956121502,0.003694001621099699
-0.001004112001259975,0.9228633050078154,0.004031775406612056
-0.001003902001259975,0.9255593801731393,0.004369549192124874
-0.001003692001259975,0.9272444271514677,0.004369549192125027
-0.001003482001259975,0.9285924647341309,0.003694001621099699
-0.001003272001259975,0.9302775117124599,0.003018454050074217
-0.001003062001259975,0.932299568086453,0.00268068026456186
-0.001002852001259975,0.9333105962734509,0.003018454050074064
-0.001002642001259975,0.9349956432517773,0.002680680264561707
-0.001002432001259975,0.9366806902301055,0.003018454050074678
-0.001002222001259975,0.9370176996257709,0.003694001621099392
-0.001002012001259975,0.9380287278127674,0.003018454050074678
-0.001001802001259975,0.9390397559997645,0.002680680264561707
-0.001001592001259975,0.940050784186762,0.001667358908023868
-0.001001382001259975,0.9413988217694237,0.002005132693536839
-0.001001172001259975,0.9410618123737591,0.003018454050074064
-0.001000962001259975,0.942072840560755,0.002680680264561707
-0.001000752001259975,0.9440948969347495,0.002005132693535764
-0.001000542001259975,0.9461169533087413,0.0006540375514863361
-0.001000332001259975,0.9474649908914039,0.0006540375514857217
-0.001000122001259975,0.9478020002870702,0.00132958512251105
-0.0009999120012599747,0.949487047265399,0.000991811336997925
-0.0009997020012599746,0.9511720942437263,-2.151001953914586e-05
-0.0009994920012599746,0.9515091036393927,0.0009918113369986931
-0.0009992820012599748,0.9525201318263886,0.00132958512251105
-0.0009990720012599747,0.9521831224307234,0.0003162637659729039
-0.0009988620012599749,0.9531941506177194,-2.151001953945309e-05
-0.0009986520012599748,0.9542051788047161,-0.0003592838050521173
-0.0009984420012599748,0.9572382633657071,-0.0003592838050522708
-0.0009982320012599747,0.9572382633657071,-2.151001953960667e-05
-0.0009980220012599746,0.9592603197397018,0.0003162637659724431
-0.0009978120012599746,0.9619563949050257,-0.001034831376077906
-0.0009976020012599748,0.962293404300691,-0.001372605161590263
-0.0009973920012599747,0.9619563949050254,-0.001372605161590263
-0.0009971820012599749,0.9636414418833527,-0.002048152732615285
-0.0009969720012599748,0.9646524700703498,-0.002723700303640613
-0.0009967620012599748,0.9656634982573471,-0.002048152732615592
-0.0009965520012599747,0.9666745264443438,-0.002385926518128256
-0.0009963420012599747,0.9690335922140031,-0.002048152732616053
-0.0009961320012599746,0.9690335922140034,-0.003061474089152662
-0.0009959220012599748,0.9693706016096687,-0.002048152732615592
-0.0009957120012599747,0.9700446204009998,-0.00272370030364092
-0.0009955020012599749,0.9700446204009998,-0.003061474089153431
-0.0009952920012599748,0.9720666767749926,-0.003399247874666095
-0.0009950820012599748,0.9717296673793279,-0.003737021660178912
-0.0009948720012599747,0.9724036861706591,-0.003399247874666248
-0.0009946620012599747,0.9747627519403183,-0.003399247874666095
-0.0009944520012599746,0.9747627519403191,-0.003061474089154199
-0.0009942420012599748,0.9757737801273151,-0.003737021660178912
-0.0009940320012599747,0.9750997613359839,-0.004750343016716905
-0.0009938220012599749,0.9754367707316494,-0.004412569231204394
-0.0009936120012599748,0.9764477989186459,-0.004750343016716752
-0.0009934020012599748,0.977458827105643,-0.003737021660178912
-0.0009931920012599747,0.9781328458969742,-0.004074795445691577
-0.0009929820012599747,0.9804919116666342,-0.004412569231204241
-0.0009927720012599746,0.9818399492492952,-0.004412569231203933
-0.0009925620012599748,0.9811659304579646,-0.004074795445691577
-0.0009923520012599747,0.9815029398536302,-0.005088116802229569
-0.0009921420012599749,0.9831879868319575,-0.004750343016717059
-0.0009919320012599748,0.9835249962276238,-0.004074795445691884
-0.0009917220012599748,0.9818399492492959,-0.004750343016716905
-0.0009915120012599747,0.9825139680406271,-0.005425890587742233
-0.0009913020012599747,0.9848730338102875,-0.004750343016717059
-0.0009910920012599746,0.9872320995799464,-0.005088116802229569
-0.0009908820012599748,0.9882431277669423,-0.005088116802229569
-0.0009906720012599747,0.988580137162608,-0.005763664373254897
-0.0009904620012599749,0.9875691089756116,-0.006101438158767408
-0.0009902520012599748,0.9885801371626075,-0.006101438158767561
-0.0009900420012599748,0.9899281747452703,-0.006439211944280226
-0.0009898320012599747,0.988580137162608,-0.007790307086330882
-0.0009896220012599747,0.9899281747452704,-0.007790307086330268
-0.0009894120012599746,0.9902651841409358,-0.006439211944280533
-0.0009892020012599748,0.9899281747452703,-0.007114759515305554
-0.0009889920012599747,0.9906021935366015,-0.007790307086330882
-0.0009887820012599749,0.990939202932267,-0.007790307086330882
-0.0009885720012599748,0.9926242499105944,-0.007790307086330882
-0.0009883620012599748,0.9939722874932575,-0.008128080871843546
-0.0009881520012599747,0.9922872405149296,-0.008465854657356211
-0.0009879420012599747,0.9922872405149303,-0.008465854657355904
-0.0009877320012599746,0.9939722874932579,-0.007790307086330882
-0.0009875220012599748,0.9949833156802543,-0.007790307086330882
-0.0009873120012599747,0.9929612593062607,-0.007452533300818218
-0.0009871020012599749,0.9932982687019262,-0.008128080871843239
-0.0009868920012599748,0.9943092968889227,-0.008803628442868567
-0.0009866820012599748,0.9946463062845887,-0.009816949799406867
-0.0009864720012599747,0.9943092968889231,-0.01015472358491953
-0.0009862620012599747,0.9956573344715857,-0.009141402228381385
-0.0009860520012599746,0.9959943438672513,-0.008803628442868874
-0.0009858420012599748,0.9963313532629168,-0.008803628442868874
-0.0009856320012599747,0.9963313532629168,-0.008803628442868874
-0.0009854220012599749,0.994983315680255,-0.009479176013893897
-0.0009852120012599748,0.9963313532629161,-0.009479176013894204
-0.0009850020012599748,0.9973423814499135,-0.01150581872697019
-0.0009847920012599747,0.9973423814499135,-0.01083027115594486
-0.0009845820012599747,0.9966683626585822,-0.01015472358491984
-0.0009843720012599746,0.9963313532629171,-0.01083027115594486
-0.0009841620012599748,0.9970053720542479,-0.01083027115594486
-0.0009839520012599747,0.9980164002412447,-0.01083027115594486
-0.0009837420012599749,0.9983534096369102,-0.01015472358491984
-0.0009835320012599748,0.9980164002412448,-0.009141402228382001
-0.0009833220012599748,0.9973423814499135,-0.009479176013894204
-0.0009831120012599747,0.9986904190325759,-0.01150581872697019
-0.0009829020012599747,0.9986904190325758,-0.01251914008350849
-0.0009826920012599746,0.99835340963691,-0.01319468765453305
-0.0009824820012599748,0.9976793908455791,-0.01218136629799552
-0.0009822720012599747,0.9959943438672512,-0.01251914008350818
-0.0009820620012599749,0.9963313532629167,-0.01150581872697065
-0.0009818520012599748,0.9973423814499131,-0.01150581872697019
-0.0009816420012599748,0.9980164002412447,-0.01218136629799552
-0.0009814320012599747,0.9970053720542479,-0.01285691386902085
-0.0009812220012599747,0.997005372054248,-0.01319468765453289
-0.0009810120012599746,0.9973423814499139,-0.0118435925124827
-0.0009808020012599748,0.9983534096369103,-0.01150581872697019
-0.0009805920012599747,0.9986904190325759,-0.01116804494145753
-0.0009803820012599749,0.9986904190325759,-0.01116804494145753
-0.0009801720012599748,0.9986904190325759,-0.01184359251248255
-0.0009799620012599748,0.9990274284282415,-0.01251914008350818
-0.0009797520012599747,0.9983534096369103,-0.01285691386902085
-0.0009795420012599747,0.9980164002412443,-0.012856913869021
-0.0009793320012599746,0.9970053720542476,-0.01319468765453366
-0.0009791220012599748,0.9963313532629168,-0.01353246144004617
-0.0009789120012599747,0.9973423814499135,-0.01387023522555884
-0.0009787020012599749,0.9976793908455788,-0.01387023522555884
-0.0009784920012599748,0.9966683626585827,-0.01353246144004633
-0.0009782820012599748,0.9956573344715856,-0.01387023522555884
-0.0009780720012599747,0.9956573344715856,-0.0142080090110715
-0.0009778620012599747,0.9943092968889231,-0.01420800901107181
-0.0009776520012599746,0.9943092968889234,-0.01488355658209683
-0.0009774420012599748,0.9949833156802543,-0.01488355658209683
-0.0009772320012599747,0.9939722874932575,-0.01454578279658417
-0.0009770220012599749,0.9943092968889228,-0.01420800901107181
-0.0009768120012599748,0.9946463062845886,-0.01454578279658401
-0.0009766020012599748,0.9946463062845887,-0.01555910415312216
-0.0009763920012599747,0.9932982687019263,-0.01589687793863482
-0.0009761820012599748,0.9919502311192639,-0.01522133036760949
-0.0009759720012599747,0.9929612593062607,-0.01522133036760949
-0.0009757620012599748,0.9932982687019263,-0.01555910415312216
-0.0009755520012599747,0.9929612593062607,-0.01623465172414749
-0.0009753420012599748,0.9912762123279327,-0.01589687793863482
-0.0009751320012599747,0.9892541559539391,-0.01454578279658417
-0.0009749220012599748,0.9895911653496047,-0.01555910415312216
-0.0009747120012599747,0.9902651841409359,-0.01589687793863482
-0.0009745020012599748,0.9889171465582735,-0.01623465172414749
-0.0009742920012599747,0.9882431277669423,-0.01488355658209683
-0.0009740820012599748,0.9882431277669423,-0.0142080090110715
-0.0009738720012599747,0.988580137162608,-0.01555910415312216
-0.0009736620012599748,0.9862210713929487,-0.01657242550966015
-0.0009734520012599747,0.9855470526016175,-0.01724797308068548
-0.0009732420012599748,0.9872320995799455,-0.01792352065171081
-0.0009730320012599747,0.9848730338102863,-0.01758574686619814
-0.0009728220012599748,0.9852100432059518,-0.01691019929517282
-0.0009726120012599747,0.9855470526016175,-0.01691019929517282
-0.0009724020012599748,0.9845360244146207,-0.01589687793863482
-0.0009721920012599747,0.9828509774362927,-0.01657242550966015
-0.0009719820012599748,0.9818399492492959,-0.01657242550966015
-0.0009717720012599747,0.9815029398536302,-0.01724797308068548
-0.0009715620012599748,0.9808289210622991,-0.01724797308068548
-0.0009713520012599747,0.9811659304579646,-0.01792352065171081
-0.0009711420012599748,0.9798178928753023,-0.01758574686619814
-0.0009709320012599747,0.9784698552926399,-0.01758574686619814
-0.0009707220012599748,0.9788068646883055,-0.01758574686619814
-0.0009705120012599747,0.9757737801273151,-0.01792352065171081
-0.0009703020012599748,0.9750997613359842,-0.01758574686619829
-0.0009700920012599747,0.9737517237533214,-0.01758574686619814
-0.0009698820012599748,0.9750997613359832,-0.01792352065171066
-0.0009696720012599747,0.9750997613359839,-0.01826129443722347
-0.0009694620012599748,0.9750997613359839,-0.01859906822273599
-0.0009692520012599747,0.9747627519403183,-0.0189368420082488
-0.0009690420012599748,0.9734147143576565,-0.0189368420082488
-0.0009688320012599747,0.9720666767749935,-0.01961238957927413
-0.0009686220012599748,0.9707186391923317,-0.01893684200824911
-0.0009684120012599747,0.9710556485879966,-0.0189368420082488
-0.0009682020012599748,0.9707186391923311,-0.01859906822273629
-0.0009679920012599747,0.9700446204009998,-0.01927461579376146
-0.0009677820012599748,0.9670115358400108,-0.01893684200824895
-0.0009675720012599747,0.9643154606746847,-0.01826129443722347
-0.0009673620012599748,0.9639784512790192,-0.01792352065171096
-0.0009671520012599747,0.9646524700703503,-0.01826129443722347
-0.0009669420012599748,0.9636414418833539,-0.01893684200824849
-0.0009667320012599747,0.9633044324876878,-0.02028793715029946
-0.0009665220012599748,0.9616193855093607,-0.01927461579376192
-0.0009663120012599748,0.9609453667180287,-0.0189368420082488
-0.0009661020012599747,0.9595973291353662,-0.01893684200824865
-0.0009658920012599748,0.9595973291353662,-0.01859906822273614
-0.0009656820012599747,0.958249291552703,-0.01859906822273645
-0.0009654720012599748,0.9565642445743758,-0.01927461579376146
-0.0009652620012599747,0.9562272351787094,-0.02062571093581212
-0.0009650520012599748,0.9545421882003822,-0.02062571093581212
-0.0009648420012599747,0.9531941506177198,-0.02062571093581212
-0.0009646320012599748,0.9531941506177198,-0.02062571093581212
-0.0009644220012599747,0.9518461130350566,-0.01995016336478648
-0.0009642120012599748,0.9501610660567295,-0.01927461579376146
-0.0009640020012599747,0.9484760190784005,-0.01961238957927428
-0.0009637920012599748,0.9464539627044077,-0.01995016336478679
-0.0009635820012599747,0.9437578875390836,-0.01927461579376177
-0.0009633720012599748,0.9451059251217454,-0.01995016336478679
-0.0009631620012599747,0.9440948969347481,-0.01995016336478648
-0.0009629520012599748,0.9430838687477517,-0.01927461579376146
-0.0009627420012599747,0.9407248029780921,-0.01995016336478694
-0.0009625320012599748,0.9397137747910957,-0.02028793715029946
-0.0009623220012599747,0.9403877935824257,-0.020287937150299
-0.0009621120012599748,0.9376917184171022,-0.01927461579376146
-0.0009619020012599747,0.9373547090214365,-0.01893684200824941
-0.0009616920012599748,0.937017699625771,-0.02028793715029946
-0.0009614820012599747,0.9339846150647806,-0.02096348472132478
-0.0009612720012599748,0.9319625586907869,-0.01995016336478679
-0.0009610620012599747,0.9299405023167934,-0.01927461579376146
-0.0009608520012599748,0.9279184459427997,-0.01995016336478679
-0.0009606420012599747,0.9292664835254622,-0.02028793715029946
-0.0009604320012599748,0.9292664835254622,-0.02062571093581212
-0.0009602220012599747,0.9255593801731405,-0.02028793715029946
-0.0009600120012599748,0.9242113425904781,-0.02130125850683745
-0.0009598020012599747,0.9252223707774749,-0.02163903229235011
-0.0009595920012599748,0.9225262956121502,-0.02163903229235011
-0.0009593820012599747,0.9191562016554942,-0.02130125850683745
-0.0009591720012599748,0.9184821828641629,-0.02096348472132478
-0.0009589620012599747,0.9174711546771661,-0.02028793715029946
-0.0009587520012599748,0.9151120889075069,-0.02096348472132478
-0.0009585420012599747,0.9120790043465165,-0.02197680607786278
-0.0009583320012599748,0.9114049855551853,-0.02197680607786278
-0.0009581220012599747,0.9100569479725229,-0.02163903229235011
-0.0009579120012599748,0.9093829291811917,-0.02096348472132478
-0.0009577020012599747,0.9093829291811917,-0.02130125850683745
-0.0009574920012599748,0.9076978822028637,-0.02096348472132478
-0.0009572820012599747,0.9056758258288701,-0.02096348472132478
-0.0009570720012599748,0.9026427412678797,-0.02163903229235011
-0.0009568620012599747,0.9023057318722141,-0.02130125850683745
-0.0009566520012599748,0.9012947036852172,-0.02096348472132478
-0.0009564420012599747,0.8996096567068893,-0.02130125850683745
-0.0009562320012599748,0.8982616191242269,-0.02197680607786278
-0.0009560220012599747,0.89725059093723,-0.02197680607786278
-0.0009558120012599748,0.8948915251675709,-0.02163903229235011
-0.0009556020012599747,0.8921954500022461,-0.02197680607786278
-0.0009553920012599748,0.8915214312109149,-0.02231457986337544
-0.0009551820012599747,0.8891623654412556,-0.02231457986337544
-0.0009549720012599748,0.8864662902759308,-0.02130125850683745
-0.0009547620012599747,0.8851182526932684,-0.02130125850683745
-0.0009545520012599748,0.8847812432976028,-0.01995016336478679
-0.0009543420012599747,0.8817481587366124,-0.01995016336478679
-0.0009541320012599748,0.8804001211539501,-0.02062571093581212
-0.0009539220012599747,0.8797261023626188,-0.02028793715029946
-0.0009537120012599748,0.8783780647799564,-0.02062571093581212
-0.0009535020012599747,0.8760189990102972,-0.02096348472132478
-0.0009532920012599748,0.8733229238449723,-0.02163903229235011
-0.0009530820012599747,0.8729859144493068,-0.02163903229235011
-0.0009528720012599748,0.8716378768666444,-0.02163903229235011
-0.0009526620012599747,0.8692788110969852,-0.02197680607786278
-0.0009524520012599748,0.8672567547229916,-0.02163903229235011
-0.0009522420012599747,0.8659087171403291,-0.02130125850683745
-0.0009520320012599748,0.8648976889533324,-0.02062571093581212
-0.0009518220012599747,0.8622016137880075,-0.02197680607786278
-0.0009516120012599748,0.8591685292270171,-0.02096348472132478
-0.0009514020012599747,0.8571464728530236,-0.02096348472132478
-0.0009511920012599748,0.8541133882920331,-0.02163903229235011
-0.0009509820012599747,0.8527653507093708,-0.0226523536488881
-0.0009507720012599748,0.8500692755440459,-0.0226523536488881
-0.0009505620012599747,0.8477102097743867,-0.02231457986337544
-0.0009503520012599748,0.8460251627960588,-0.02163903229235011
-0.0009501420012599747,0.8446771252133963,-0.02062571093581212
-0.0009499320012599748,0.8433290876307339,-0.02062571093581212
-0.0009497220012599747,0.8419810500480716,-0.02130125850683745
-0.0009495120012599748,0.8392849748827467,-0.02062571093581212
-0.0009493020012599747,0.8382739466957499,-0.02130125850683745
-0.0009490920012599748,0.8362518903217563,-0.02130125850683745
-0.0009488820012599747,0.8349038527390938,-0.02163903229235011
-0.0009486720012599748,0.8311967493867722,-0.02231457986337544
-0.0009484620012599747,0.8288376836171131,-0.02130125850683745
-0.0009482520012599748,0.827152636638785,-0.02163903229235011
-0.0009480420012599747,0.8247935708691259,-0.02163903229235011
-0.0009478320012599748,0.8220974957038011,-0.02028793715029946
-0.0009476220012599747,0.8210864675168043,-0.01961238957927413
-0.0009474120012599748,0.8197384299341418,-0.01995016336478679
-0.0009472020012599747,0.8167053453731514,-0.01961238957927413
-0.0009469920012599748,0.815357307790489,-0.01995016336478679
-0.0009467820012599747,0.8116502044381674,-0.01995016336478679
-0.0009465720012599748,0.8082801104815114,-0.01961238957927413
-0.0009463620012599747,0.8069320728988491,-0.01995016336478679
-0.0009461520012599748,0.8069320728988491,-0.02130125850683745
-0.0009459420012599747,0.8055840353161866,-0.02163903229235011
