scopeulin.csv

#Digilent WaveForms Oscilloscope Acquisition
#Device Name: Discovery2
#Serial Number: SN:210321B2879B
#Date Time: 2025-05-14 10:24:10.351
#Sample rate: 800000Hz
#Samples: 8192
#Trigger: Source: Channel 1 Type: Edge Condition: Rising Level: 0 V Hyst.: Auto HoldOff: 0 s
#Channel 1: Range: 500 mV/div Offset: 0 V Sample Mode: Average
#Channel 2: Range: 500 mV/div Offset: 0 V Sample Mode: Average
#Wavegen Channel 1: Running
#Mode: Simple
#Type: Sine
#Frequency: 2.8 kHz
#Period: 357.1428571 us
#Amplitude: 1 V
#Offset: 0 V
#Symmetry: 50 %
#Phase: 0 °

Time (s),Channel 1 (V),Channel 2 (V)
-0.005118861940298508,-0.8616014450415411,-0.000697057590564935
-0.005117611940298508,-0.8727227550985059,-0.001372605161590263
-0.005116361940298507,-0.8845180839468061,-2.151001953945307e-05
-0.005115111940298508,-0.8936173376297731,0.0003162637659730575
-0.005113861940298507,-0.9023795819170788,-2.151001953960667e-05
-0.005112611940298508,-0.9121528543913812,-2.151001953960667e-05
-0.005111361940298507,-0.9188930423046933,-2.151001953960667e-05
-0.005110111940298508,-0.9293403335703221,-0.0006970575905646279
-0.005108861940298508,-0.9354065026923076,-2.151001953960667e-05
-0.005107611940298507,-0.9421466906056233,-0.0006970575905650886
-0.005106361940298508,-0.9498979067059286,-0.001034831376077599
-0.005105111940298507,-0.9559640758279119,-0.0003592838050519636
-0.005103861940298508,-0.9616932355542246,0.0003162637659730575
-0.005102611940298507,-0.9664113670935429,0.0003162637659730575
-0.005101361940298508,-0.9718035174241926,-0.000697057590564935
-0.005100111940298508,-0.9768586583591766,-0.001034831376077599
-0.005098861940298508,-0.9805657617114966,0.0006540375514849537
-0.005097611940298508,-0.9849468838551511,-0.0003592838050522708
-0.005096361940298507,-0.9876429590204766,-2.151001953976027e-05
-0.005095111940298508,-0.9893280059988038,-0.0003592838050522708
-0.005093861940298507,-0.9913500623727981,-0.001034831376077138
-0.005092611940298508,-0.9926980999554599,-2.151001953960667e-05
-0.005091361940298507,-0.9937091281424566,-2.151001953960667e-05
-0.005090111940298508,-0.9950571657251184,-0.0006970575905646279
-0.005088861940298508,-0.9947201563294534,-0.0003592838050522708
-0.005087611940298508,-0.9947201563294534,-0.0006970575905647814
-0.005086361940298508,-0.9940461375381222,-0.001372605161590263
-0.005085111940298507,-0.9923610905597932,-0.0003592838050522708
-0.005083861940298508,-0.990002024790135,-0.0003592838050522708
-0.005082611940298507,-0.9886539872074727,-2.151001953960667e-05
-0.005081361940298508,-0.9862949214378134,0.0006540375514857217
-0.005080111940298507,-0.983261836876823,0.0006540375514857217
-0.005078861940298508,-0.9792177241288377,-0.00035928380505181
-0.005077611940298508,-0.9741625831938517,-0.0003592838050522708
-0.005076361940298508,-0.9694444516545355,-0.0003592838050522708
-0.005075111940298508,-0.964726320115215,-0.000697057590564935
-0.005073861940298507,-0.9596711791802278,-2.151001953976027e-05
-0.005072611940298508,-0.9529309912669189,-0.0003592838050522708
-0.005071361940298507,-0.9468648221449381,-0.000697057590564935
-0.005070111940298508,-0.9401246342316261,-0.0003592838050522708
-0.005068861940298507,-0.9323734181313172,-2.151001953960667e-05
-0.005067611940298508,-0.9249592114266774,-0.0006970575905646279
-0.005066361940298508,-0.914848929556706,-0.000697057590564935
-0.005065111940298507,-0.907771732247724,-0.0006970575905644742
-0.005063861940298508,-0.897998459773426,0.0003162637659730575
-0.005062611940298507,-0.8888992060904499,-2.151001953976027e-05
-0.005061361940298508,-0.8781149054291555,-0.0003592838050522708
-0.005060111940298507,-0.8683416329548531,-0.0003592838050522708
-0.005058861940298508,-0.8565463041065571,-0.0003592838050522708
-0.005057611940298508,-0.8467730316322546,-0.000697057590564935
-0.005056361940298508,-0.8343036839926331,-0.000697057590564935
-0.005055111940298508,-0.8214973269573346,-0.0003592838050522708
-0.005053861940298507,-0.8090279793177013,0.0006540375514851073
-0.005052611940298508,-0.7958846128867489,-0.000697057590564935
-0.005051361940298507,-0.7834152652471159,-0.001034831376077292
-0.005050111940298508,-0.7706089082118288,-0.0003592838050522708
-0.005048861940298507,-0.756117504198208,-0.0003592838050522708
-0.005047611940298508,-0.7429741377672555,-2.151001953976025e-05
-0.005046361940298508,-0.7261236679839695,-2.151001953960667e-05
-0.005045111940298508,-0.7109582451790244,-0.0006970575905646279
-0.005043861940298508,-0.6961298317697311,-0.000697057590564935
-0.005042611940298507,-0.6802903901734406,0.0003162637659727503
-0.005041361940298508,-0.6644509485771646,-0.0003592838050522708
-0.005040111940298507,-0.6472634693982189,-0.000697057590564935
-0.005038861940298508,-0.6300759902192733,-0.0003592838050522708
-0.005037611940298507,-0.6118774828533308,-0.0003592838050522708
-0.005036361940298508,-0.5963750506527201,-0.0003592838050522708
-0.005035111940298508,-0.5778395338911051,-0.0003592838050522708
-0.005033861940298508,-0.5606520547121673,-2.151001953976025e-05
-0.005032611940298508,-0.542453547346217,-0.000697057590564935
-0.005031361940298507,-0.5239180305846006,-0.0003592838050521173
-0.005030111940298508,-0.5057195232186665,-2.151001953960667e-05
-0.005028861940298507,-0.485835968874396,0.0003162637659730575
-0.005027611940298508,-0.4676374615084536,-0.0003592838050522708
-0.005026361940298507,-0.4474168977685175,-0.0003592838050522708
-0.005025111940298508,-0.4278703528199215,-0.0003592838050522708
-0.005023861940298508,-0.407312779684311,-0.0003592838050522708
-0.005022611940298507,-0.3867552065487003,-0.0003592838050521173
-0.005021361940298508,-0.3668716522044389,-2.151001953960667e-05
-0.005020111940298507,-0.3473251072558246,-0.0003592838050521173
-0.005018861940298508,-0.3264305247245668,-2.151001953960667e-05
-0.005017611940298507,-0.3058729515889651,-0.000697057590564935
-0.005016361940298508,-0.2846413596620322,-0.001034831376077599
-0.005015111940298508,-0.2640837865264306,-0.000697057590564935
-0.005013861940298508,-0.2415041570168457,0.0006540375514851074
-0.005012611940298508,-0.2189245275072401,-2.151001953960667e-05
-0.005011361940298507,-0.1990409731629599,-0.0006970575905647814
-0.005010111940298508,-0.1774723718403712,-0.0003592838050522708
-0.005008861940298507,-0.1559037705177628,-0.0003592838050524244
-0.005007611940298508,-0.1339981597995087,-0.000697057590564935
-0.005006361940298507,-0.1127665678725758,-0.001034831376077599
-0.005005111940298508,-0.08951291957164936,-0.0003592838050522708
-0.005003861940298508,-0.0689553464360477,-2.151001953960667e-05
-0.005002611940298508,-0.04806076390478996,0.0003162637659729039
-0.005001361940298508,-0.02581814379085079,-0.000697057590564935
-0.005000111940298507,-0.001890476698583475,-0.0003592838050521173
-0.004998861940298508,0.01934111522833973,-2.151001953960667e-05
-0.004997611940298507,0.04023569775960698,-0.0003592838050522708
-0.004996361940298508,0.06214130847787104,-0.0003592838050522708
-0.004995111940298507,0.08404691919613511,-0.000697057590564935
-0.004993861940298508,0.107300567497051,-2.151001953991382e-05
-0.004992611940298508,0.1281951500283288,-0.0003592838050522708
-0.004991361940298508,0.1507747795379138,0.0003162637659727503
-0.004990111940298508,0.1723433808605225,-0.000697057590564935
-0.004988861940298507,0.1932379633917994,-0.000697057590564167
-0.004987611940298508,0.2144695553187226,0.0009918113369983858
-0.004986361940298507,0.2360381566413211,0.0003162637659730575
-0.004985111940298508,0.2576067579639196,0.0003162637659730575
-0.004983861940298507,0.279175359286518,0.0003162637659730575
-0.004982611940298508,0.2990589136307795,0.001329585122510589
-0.004981361940298508,0.3199534961620558,0.002342906479049043
-0.004980111940298507,0.3398370505063362,0.003018454050074985
-0.004978861940298508,0.3617426612245903,0.004369549192125027
-0.004977611940298507,0.3819632249645357,0.006733965690715213
-0.004976361940298508,0.402520798100128,0.01011170354584032
-0.004975111940298507,0.4220673430487328,0.01281389382994163
-0.004973861940298508,0.4416138879973377,0.01889382196916959
-0.004972611940298508,0.4621714611329393,0.02463597632288488
-0.004971361940298508,0.4803699684988735,0.03139145203313509
-0.004970111940298508,0.5005905322388178,0.0394980228854421
-0.004968861940298507,0.5194630583960999,0.04895568887980131
-0.004967611940298508,0.5379985751576994,0.05908890244517662
-0.004966361940298507,0.5561970825236496,0.07023543736709868
-0.004965111940298508,0.5730475523069219,0.07935532957593647
-0.004963861940298507,0.5895610126945364,0.09016409071234173
-0.004962611940298508,0.6097815764344725,0.104012815918361
-0.004961361940298508,0.6279800838004149,0.1168482197678422
-0.004960111940298508,0.6428084972096946,0.1269814333332175
-0.004958861940298508,0.6593219575973158,0.1398168371827034
-0.004957611940298507,0.6758354179849376,0.15265224103219
-0.004956361940298508,0.6920118689768791,0.1644743235251279
-0.004955111940298507,0.7075143011774967,0.1776475011601218
-0.004953861940298508,0.7236907521694456,0.1898073574385777
-0.004952611940298507,0.7381821561830665,0.2016294399315209
-0.004951361940298508,0.7513255226140189,0.2127759748534337
-0.004950111940298508,0.7678389830016393,0.2249358311318947
-0.004948861940298508,0.7806453400369263,0.2360823660538076
-0.004947611940298508,0.7941257158635562,0.2472289009757306
-0.004946361940298507,0.8065950635031894,0.2587132096831661
-0.004945111940298508,0.8197384299341418,0.2695219708195664
-0.004943861940298507,0.8305227305954411,0.2783040892428957
-0.004942611940298508,0.8440031064220651,0.2911394930923769
-0.004941361940298507,0.8557984352703611,0.3002593853012189
-0.004940111940298508,0.8655717077446591,0.3093792775100566
-0.004938861940298508,0.8770300271972939,0.3188369435044154
-0.004937611940298508,0.8884883466499193,0.3286323832842782
-0.004936361940298508,0.8969135815415644,0.3364011803510739
-0.004935111940298507,0.9056758258288744,0.3445077512033815
-0.004933861940298508,0.9151120889075069,0.3526143220556818
-0.004932611940298507,0.9235373237991469,0.3600453453369604
-0.004931361940298508,0.9322995680864525,0.367476368618239
-0.004930111940298508,0.9393767653954301,0.374569618114005
-0.004928861940298508,0.94679097210007,0.3803117724677176
-0.004927611940298508,0.9535311600133854,0.3867294743924609
-0.004926361940298507,0.9599343385310342,0.3921338549606655
-0.004925111940298508,0.9649894794660159,0.3965249141723282
-0.004923861940298507,0.970718639192333,0.4012537471695079
-0.004922611940298508,0.9750997613359839,0.406658127737708
-0.004921361940298507,0.9794808834796367,0.409698091807322
-0.004920111940298508,0.9838620056232895,0.4130758296624487
-0.004918861940298508,0.9875691089756111,0.417804662659626
-0.004917611940298508,0.9902651841409347,0.4201690791582136
-0.004916361940298508,0.9922872405149296,0.4215201743002653
-0.004915111940298507,0.9946463062845894,0.4232090432278295
-0.004913861940298508,0.9959943438672512,0.4252356859409046
-0.004912611940298507,0.9976793908455792,0.4265867810829551
-0.004911361940298508,0.9980164002412447,0.4262490072974426
-0.004910111940298507,0.9976793908455791,0.4259112335119299
-0.004908861940298508,0.9970053720542482,0.4262490072974424
-0.004907611940298508,0.9963313532629168,0.4248979121553919
-0.004906361940298508,0.994983315680255,0.4232090432278294
-0.004905111940298508,0.9932982687019263,0.4225334956568033
-0.004903861940298507,0.9902651841409348,0.4191557578016762
-0.004902611940298508,0.9879061183712767,0.4181424364451387
-0.004901361940298507,0.9848730338102863,0.4151024723755247
-0.004900111940298508,0.9804919116666335,0.4124002820914234
-0.004898861940298507,0.9764477989186463,0.4076714490942461
-0.004897611940298508,0.97172966737933,0.4036181636680959
-0.004896361940298508,0.9666745264443438,0.3985515568854041
-0.004895111940298508,0.9606083573223658,0.3931471763172039
-0.004893861940298508,0.9542051788047166,0.3870672481779736
-0.004892611940298507,0.9488130284740645,0.3820006413952817
-0.004891361940298508,0.9430838687477517,0.3779473559691316
-0.004890111940298507,0.9343216244604462,0.369503011331315
-0.004888861940298508,0.9265704083601374,0.3617342142645237
-0.004887611940298507,0.9167971358858349,0.3549787385542704
-0.004886361940298508,0.9090459197855296,0.3485610366295328
-0.004885111940298508,0.8985986285198925,0.3377522754931246
-0.004883861940298507,0.8894993748369168,0.3299834784263297
-0.004882611940298508,0.8797261023626188,0.322214681359542
-0.004881361940298507,0.8699528298883111,0.3130947891506959
-0.004880111940298508,0.8584945104356859,0.3039748969418581
-0.004878861940298507,0.8473732003787211,0.2924905882344276
-0.004877611940298508,0.8349038527390938,0.2843840173821237
-0.004876361940298508,0.8227715144951323,0.2735752562457184
-0.004875111940298508,0.8106391762511762,0.262090947538293
-0.004873861940298508,0.798506838007209,0.2512821864018825
-0.004872611940298507,0.7836784245979163,0.2387845563379094
-0.004871361940298508,0.7698610393756329,0.228651342772534
-0.004870111940298507,0.755369635362006,0.2161537127085604
-0.004868861940298508,0.7418892595353881,0.2050071777866476
-0.004867611940298507,0.728408883708764,0.193522869079217
-0.004866361940298508,0.7118954233211571,0.1806874652297416
-0.004865111940298508,0.6957189723292008,0.1681898351657672
-0.004863861940298508,0.6795425213372592,0.1560299788873168
-0.004862611940298508,0.6647141079279655,0.1438701226088553
-0.004861361940298507,0.6482006475403435,0.1317102663303939
-0.004860111940298508,0.6316871871527365,0.1195504100519435
-0.004858861940298507,0.6144997079737909,0.1087416489155383
-0.004857611940298508,0.596638210003514,0.09624401885156968
-0.004856361940298507,0.5791137214289028,0.08509748392965176
-0.004855111940298508,0.5615892328542995,0.07293762765120138
-0.004853861940298508,0.5423796973013523,0.0621288665147906
-0.004852611940298508,0.5231701617484218,0.05165787916390277
-0.004851361940298508,0.5049716543824706,0.04321353452608141
-0.004850111940298507,0.4864361376208539,0.03443141610274814
-0.004848861940298508,0.4672266020679234,0.02564929767942287
-0.004847611940298507,0.4476800571193185,0.02058269089673291
-0.004846361940298508,0.427796502775048,0.01484053654301762
-0.004845111940298507,0.4089239766177744,0.01044947733135298
-0.004843861940298508,0.3873553752951858,0.007409513261740388
-0.004842611940298508,0.3667978021595743,0.004707322977637692
-0.004841361940298507,0.3479252760022905,0.003694001621098931
-0.004840111940298508,0.325682655888371,0.002005132693536378
-0.004838861940298507,0.3054620921484254,0.001329585122510436
-0.004837611940298508,0.2845675096171676,-2.151001953960667e-05
-0.004836361940298507,0.264009936481566,-0.0003592838050522708
-0.004835111940298508,0.2421043257633019,-0.001034831376077599
-0.004833861940298508,0.2205357244407035,-0.000697057590564935
-0.004832611940298508,0.1979560949311185,0.0003162637659725967
-0.004831361940298508,0.1784095499825034,0.0003162637659730575
-0.004830111940298507,0.1571779580555601,-0.0003592838050522708
-0.004828861940298508,0.1342613191503096,-0.0003592838050522708
-0.004827611940298507,0.1113446802450391,-0.0003592838050521173
-0.004826361940298508,0.09011308831811593,-2.151001953960667e-05
-0.004825111940298507,0.06955551518251427,-0.0003592838050522708
-0.004823861940298508,0.04596485748593292,-0.0003592838050522708
-0.004822611940298508,0.02507027495465494,0.0003162637659730575
-0.004821361940298508,0.003838683027731739,-0.0003592838050519637
-0.004820111940298508,-0.01874094648187317,-0.001034831376077599
-0.004818861940298507,-0.0406465572001472,-2.151001954006748e-05
-0.004817611940298508,-0.06255216791840129,-0.001034831376077599
-0.004816361940298507,-0.08513179742799656,-0.001034831376077599
-0.004815111940298508,-0.1063633893549294,-0.000697057590564935
-0.004813861940298507,-0.1292800282601903,-0.000697057590564935
-0.004812611940298508,-0.1498376013957826,-0.0003592838050524244
-0.004811361940298508,-0.1710691933227248,-0.000697057590564935
-0.004810111940298508,-0.1936488228323098,-0.000697057590564935
-0.004808861940298508,-0.2138693865722561,-0.0003592838050522708
-0.004807611940298507,-0.2367860254775262,-2.151001953991387e-05
-0.004806361940298508,-0.257006589217453,-0.000697057590564935
-0.004805111940298507,-0.2782381811443859,-2.151001953960667e-05
-0.004803861940298508,-0.2987957542799875,0.0003162637659730575
-0.004802611940298507,-0.3210383743939172,-0.000697057590564935
-0.004801361940298508,-0.3402479099468477,-0.0003592838050524244
-0.004800111940298508,-0.3604684736867925,-0.000697057590564935
-0.004798861940298507,-0.3823740844050653,0.0006540375514849536
-0.004797611940298508,-0.4015836199579958,-0.001034831376077599
-0.004796361940298507,-0.4224782024892716,-2.151001953960667e-05
-0.004795111940298508,-0.4413507286465367,-2.151001953960667e-05
-0.004793861940298507,-0.4622453111778039,-0.0003592838050522708
-0.004792611940298508,-0.4804438185437464,-0.000697057590564935
-0.004791361940298508,-0.4996533540966857,-0.000697057590564935
-0.004790111940298508,-0.5181888708582854,-0.001034831376077446
-0.004788861940298508,-0.5363873782242362,-0.0003592838050522708
-0.004787611940298507,-0.5552599043815182,-0.0006970575905647814
-0.004786361940298508,-0.5734584117474523,-0.0003592838050522708
-0.004785111940298507,-0.5903088815307401,-0.0003592838050524244
-0.004783861940298508,-0.6074963607096781,-0.000697057590564935
-0.004782611940298507,-0.6256948680756205,-2.151001953960667e-05
-0.004781361940298508,-0.6428823472545583,-0.0003592838050521173
-0.004780111940298508,-0.6600698264335118,0.0003162637659730575
-0.004778861940298508,-0.6752352492384569,-0.001034831376076985
-0.004777611940298508,-0.6924227284174094,-0.001034831376077599
-0.004776361940298507,-0.7075881512223681,-0.0003592838050524244
-0.004775111940298508,-0.7220795552359823,-0.000697057590564935
-0.004773861940298507,-0.7372449780409344,-0.001034831376077599
-0.004772611940298508,-0.7517363820545552,-2.151001953960667e-05
-0.004771361940298507,-0.7658907766725104,0.0003162637659730575
-0.004770111940298508,-0.7786971337077975,0.0003162637659730575
-0.004768861940298508,-0.7928515283257584,-0.000697057590564935
-0.004767611940298508,-0.8066689135480418,-0.0003592838050524244
-0.004766361940298508,-0.8191382611876754,-2.151001953960667e-05
-0.004765111940298507,-0.8312705994316421,-0.00137260516159011
-0.004763861940298508,-0.8423919094886019,-0.001034831376077599
-0.004762611940298507,-0.8538502289412323,0.0003162637659730575
-0.004761361940298508,-0.8646345296025315,-2.151001953960667e-05
-0.004760111940298507,-0.8754188302638307,-0.0003592838050522708
-0.004758861940298508,-0.8858661215294595,-2.151001953976025e-05
-0.004757611940298508,-0.8953023846081012,-0.001710378947102928
-0.004756361940298507,-0.9050756570824072,-2.151001953945307e-05
-0.004755111940298508,-0.913163882578378,0.0003162637659730575
-0.004753861940298507,-0.9215891174700221,-0.0006970575905647814
-0.004752611940298508,-0.9306883711529893,-0.0003592838050522708
-0.004751361940298507,-0.9384395872532981,-0.0003592838050522708
-0.004750111940298508,-0.9445057563752789,-0.001034831376077599
-0.004748861940298508,-0.9509089348929253,-0.000697057590564935
-0.004747611940298508,-0.9569751040149034,-0.001034831376077446
-0.004746361940298508,-0.9633782825325525,-0.0003592838050522708
-0.004745111940298507,-0.9677594046762078,-0.0006970575905647814
-0.004743861940298508,-0.973151555006855,-0.0003592838050522708
-0.004742611940298507,-0.9788807147331717,-0.0003592838050522708
-0.004741361940298508,-0.9822508086898262,-0.0003592838050522708
-0.004740111940298507,-0.9856209026464822,-0.0003592838050522708
-0.004738861940298508,-0.9883169778118058,-2.151001953976025e-05
-0.004737611940298508,-0.990002024790135,-0.000697057590564935
-0.004736361940298508,-0.9920240811641278,-0.000697057590564935
-0.004735111940298508,-0.9943831469337878,-0.0003592838050522708
-0.004733861940298507,-0.9957311845164504,0.0006540375514852609
